%!PS-Adobe-3.0
%%DocumentNeededResources: font Helvetica
%%+ font Helvetica-Bold
%%+ font Helvetica-Oblique
%%+ font Helvetica-BoldOblique
%%+ font Symbol
%%DocumentMedia: special 576 576 0 () ()
%%Title: R Graphics Output
%%Creator: R Software
%%Pages: (atend)
%%BoundingBox: 0 0 576 576
%%EndComments
%%BeginProlog
/bp  { gs sRGB gs } def
% begin .ps.prolog
/gs  { gsave } bind def
/gr  { grestore } bind def
/ep  { showpage gr gr } bind def
/m   { moveto } bind def
/l  { rlineto } bind def
/np  { newpath } bind def
/cp  { closepath } bind def
/f   { fill } bind def
/o   { stroke } bind def
/c   { newpath 0 360 arc } bind def
/r   { 4 2 roll moveto 1 copy 3 -1 roll exch 0 exch rlineto 0 rlineto -1 mul 0 exch rlineto closepath } bind def
/p1  { stroke } bind def
/p2  { gsave bg fill grestore newpath } bind def
/p3  { gsave bg fill grestore stroke } bind def
/p6  { gsave bg eofill grestore newpath } bind def
/p7  { gsave bg eofill grestore stroke } bind def
/t   { 5 -2 roll moveto gsave rotate
       1 index stringwidth pop
       mul neg 0 rmoveto show grestore } bind def
/ta  { 4 -2 roll moveto gsave rotate show } bind def
/tb  { 2 -1 roll 0 rmoveto show } bind def
/cl  { grestore gsave newpath 3 index 3 index moveto 1 index
       4 -1 roll lineto  exch 1 index lineto lineto
       closepath clip newpath } bind def
/rgb { setrgbcolor } bind def
/s   { scalefont setfont } bind def
% end   .ps.prolog
/sRGB { [ /CIEBasedABC
          << /DecodeLMN
               [ { dup 0.03928 le
                        {12.92321 div}
                        {0.055 add 1.055 div 2.4 exp }
                     ifelse
                 } bind dup dup
               ]
             /MatrixLMN [0.412457 0.212673 0.019334
                         0.357576 0.715152 0.119192
                         0.180437 0.072175 0.950301]
             /WhitePoint [0.9505 1.0 1.0890]
           >>
         ] setcolorspace } bind def
/srgb { setcolor } bind def
%%IncludeResource: font Helvetica
/Helvetica findfont
dup length dict begin
  {1 index /FID ne {def} {pop pop} ifelse} forall
  /Encoding ISOLatin1Encoding def
  currentdict
  end
/Font1 exch definefont pop
%%IncludeResource: font Helvetica-Bold
/Helvetica-Bold findfont
dup length dict begin
  {1 index /FID ne {def} {pop pop} ifelse} forall
  /Encoding ISOLatin1Encoding def
  currentdict
  end
/Font2 exch definefont pop
%%IncludeResource: font Helvetica-Oblique
/Helvetica-Oblique findfont
dup length dict begin
  {1 index /FID ne {def} {pop pop} ifelse} forall
  /Encoding ISOLatin1Encoding def
  currentdict
  end
/Font3 exch definefont pop
%%IncludeResource: font Helvetica-BoldOblique
/Helvetica-BoldOblique findfont
dup length dict begin
  {1 index /FID ne {def} {pop pop} ifelse} forall
  /Encoding ISOLatin1Encoding def
  currentdict
  end
/Font4 exch definefont pop
%%IncludeResource: font Symbol
/Symbol findfont
dup length dict begin
  {1 index /FID ne {def} {pop pop} ifelse} forall
  currentdict
  end
/Font5 exch definefont pop
%%EndProlog
%%Page: 1 1
bp
59.04 73.44 545.76 516.96 cl
0.00 0.00 576.00 576.00 cl
/Font1 findfont 12 s
0 0 0 srgb
302.40 4.32 (Months) .5 0 t
59.04 73.44 545.76 516.96 cl
1 0 0 srgb
0.75 setlinewidth
[] 0 setdash
1 setlinecap
1 setlinejoin
10.00 setmiterlimit
np
59.04 500.53 m
5.87 0 l
0 -13.24 l
4.19 0 l
0 -13.25 l
2.52 0 l
0 -13.25 l
1.68 0 l
0 -13.25 l
18.45 0 l
0 -13.24 l
3.35 0 l
0 -13.25 l
5.04 0 l
0 -13.25 l
3.35 0 l
0 -13.25 l
15.94 0 l
0 -13.84 l
0.84 0 l
0 -41.55 l
5.87 0 l
0 -13.85 l
0.84 0 l
0 -13.85 l
3.35 0 l
0 -13.85 l
2.52 0 l
0 -13.85 l
1.67 0 l
0 -13.85 l
2.52 0 l
0 -13.85 l
9.23 0 l
0 -13.85 l
10.90 0 l
0 -13.85 l
5.87 0 l
0 -13.85 l
42.77 0 l
0 -20.77 l
48.65 0 l
0 -25.97 l
5.03 0 l
0 -25.97 l
46.97 0 l
0 -25.97 l
123.29 0 l
0 0 l
o
np
104.71 394.55 m
7.63 0 l
o
np
108.52 390.74 m
0 7.63 l
o
np
164.25 214.51 m
7.64 0 l
o
np
168.07 210.69 m
0 7.64 l
o
np
183.54 214.51 m
7.64 0 l
o
np
187.36 210.69 m
0 7.64 l
o
np
193.61 214.51 m
7.64 0 l
o
np
197.43 210.69 m
0 7.64 l
o
np
228.00 193.74 m
7.63 0 l
o
np
231.81 189.92 m
0 7.64 l
o
np
425.93 115.83 m
7.64 0 l
o
np
429.75 112.02 m
0 7.63 l
o
0 0 1 srgb
np
59.04 500.53 m
31.87 0 l
0 -14.66 l
8.39 0 l
0 -14.67 l
1.68 0 l
0 -14.67 l
15.93 0 l
0 -14.66 l
21.81 0 l
0 -14.67 l
5.87 0 l
0 -14.67 l
10.06 0 l
0 -14.66 l
4.20 0 l
0 -14.67 l
5.03 0 l
0 -14.67 l
7.55 0 l
0 -14.66 l
3.35 0 l
0 -14.67 l
1.68 0 l
0 -14.67 l
13.42 0 l
0 -15.64 l
0.84 0 l
0 -15.65 l
4.19 0 l
0 -15.64 l
5.87 0 l
0 -15.64 l
4.20 0 l
0 -15.65 l
30.19 0 l
0 -15.64 l
5.03 0 l
0 -15.65 l
2.52 0 l
0 -15.64 l
34.38 0 l
0 -18.25 l
249.94 0 l
0 0 l
o
np
172.64 324.53 m
7.64 0 l
o
np
176.46 320.71 m
0 7.64 l
o
np
251.48 199.38 m
7.64 0 l
o
np
255.30 195.56 m
0 7.64 l
o
np
318.58 181.13 m
7.63 0 l
o
np
322.39 177.31 m
0 7.63 l
o
np
404.12 181.13 m
7.64 0 l
o
np
407.94 177.31 m
0 7.63 l
o
np
433.48 181.13 m
7.64 0 l
o
np
437.30 177.31 m
0 7.63 l
o
np
447.74 181.13 m
7.63 0 l
o
np
451.56 177.31 m
0 7.63 l
o
np
523.22 181.13 m
7.64 0 l
o
np
527.04 177.31 m
0 7.63 l
o
0.00 0.00 576.00 576.00 cl
0 0 0 srgb
0.75 setlinewidth
[] 0 setdash
1 setlinecap
1 setlinejoin
10.00 setmiterlimit
np
59.04 73.44 m
486.72 0 l
o
np
59.04 73.44 m
0 -7.20 l
o
np
159.69 73.44 m
0 -7.20 l
o
np
260.33 73.44 m
0 -7.20 l
o
np
360.98 73.44 m
0 -7.20 l
o
np
461.62 73.44 m
0 -7.20 l
o
/Font1 findfont 12 s
59.04 47.52 (0) .5 0 t
159.69 47.52 (12) .5 0 t
260.33 47.52 (24) .5 0 t
360.98 47.52 (36) .5 0 t
461.62 47.52 (48) .5 0 t
np
59.04 89.87 m
0 410.66 l
o
np
59.04 89.87 m
-7.20 0 l
o
np
59.04 172.00 m
-7.20 0 l
o
np
59.04 254.13 m
-7.20 0 l
o
np
59.04 336.27 m
-7.20 0 l
o
np
59.04 418.40 m
-7.20 0 l
o
np
59.04 500.53 m
-7.20 0 l
o
41.76 89.87 (0.0) .5 90 t
41.76 172.00 (0.2) .5 90 t
41.76 254.13 (0.4) .5 90 t
41.76 336.27 (0.6) .5 90 t
41.76 418.40 (0.8) .5 90 t
41.76 500.53 (1.0) .5 90 t
ep
%%Trailer
%%Pages: 1
%%EOF
