%!PS-Adobe-3.0
%%DocumentNeededResources: font Helvetica
%%+ font Helvetica-Bold
%%+ font Helvetica-Oblique
%%+ font Helvetica-BoldOblique
%%+ font Symbol
%%DocumentMedia: us 612 792 0 () ()
%%Title: R Graphics Output
%%Creator: R Software
%%Pages: (atend)
%%Orientation: Portrait
%%BoundingBox: 18 18 594 774
%%EndComments
%%BeginProlog
/bp  { gs sRGB gs } def
% begin .ps.prolog
/gs  { gsave } bind def
/gr  { grestore } bind def
/ep  { showpage gr gr } bind def
/m   { moveto } bind def
/l  { rlineto } bind def
/np  { newpath } bind def
/cp  { closepath } bind def
/f   { fill } bind def
/o   { stroke } bind def
/c   { newpath 0 360 arc } bind def
/r   { 4 2 roll moveto 1 copy 3 -1 roll exch 0 exch rlineto 0 rlineto -1 mul 0 exch rlineto closepath } bind def
/p1  { stroke } bind def
/p2  { gsave bg fill grestore newpath } bind def
/p3  { gsave bg fill grestore stroke } bind def
/p6  { gsave bg eofill grestore newpath } bind def
/p7  { gsave bg eofill grestore stroke } bind def
/t   { 5 -2 roll moveto gsave rotate
       1 index stringwidth pop
       mul neg 0 rmoveto show grestore } bind def
/ta  { 4 -2 roll moveto gsave rotate show } bind def
/tb  { 2 -1 roll 0 rmoveto show } bind def
/cl  { grestore gsave newpath 3 index 3 index moveto 1 index
       4 -1 roll lineto  exch 1 index lineto lineto
       closepath clip newpath } bind def
/rgb { setrgbcolor } bind def
/s   { scalefont setfont } bind def
% end   .ps.prolog
/sRGB { [ /CIEBasedABC
          << /DecodeLMN
               [ { dup 0.03928 le
                        {12.92321 div}
                        {0.055 add 1.055 div 2.4 exp }
                     ifelse
                 } bind dup dup
               ]
             /MatrixLMN [0.412457 0.212673 0.019334
                         0.357576 0.715152 0.119192
                         0.180437 0.072175 0.950301]
             /WhitePoint [0.9505 1.0 1.0890]
           >>
         ] setcolorspace } bind def
/srgb { setcolor } bind def
%%IncludeResource: font Helvetica
/Helvetica findfont
dup length dict begin
  {1 index /FID ne {def} {pop pop} ifelse} forall
  /Encoding ISOLatin1Encoding def
  currentdict
  end
/Font1 exch definefont pop
%%IncludeResource: font Helvetica-Bold
/Helvetica-Bold findfont
dup length dict begin
  {1 index /FID ne {def} {pop pop} ifelse} forall
  /Encoding ISOLatin1Encoding def
  currentdict
  end
/Font2 exch definefont pop
%%IncludeResource: font Helvetica-Oblique
/Helvetica-Oblique findfont
dup length dict begin
  {1 index /FID ne {def} {pop pop} ifelse} forall
  /Encoding ISOLatin1Encoding def
  currentdict
  end
/Font3 exch definefont pop
%%IncludeResource: font Helvetica-BoldOblique
/Helvetica-BoldOblique findfont
dup length dict begin
  {1 index /FID ne {def} {pop pop} ifelse} forall
  /Encoding ISOLatin1Encoding def
  currentdict
  end
/Font4 exch definefont pop
%%IncludeResource: font Symbol
/Symbol findfont
dup length dict begin
  {1 index /FID ne {def} {pop pop} ifelse} forall
  currentdict
  end
/Font5 exch definefont pop
%%EndProlog
%%Page: 1 1
bp
134.64 469.44 578.16 714.96 cl
0 0 0 srgb
2.25 setlinewidth
[] 0 setdash
0 setlinecap
1 setlinejoin
10.00 setmiterlimit
np
172.49 487.27 m
0 15.00 l
o
0.75 setlinewidth
[ 2.25 3.75] 0 setdash
1 setlinecap
np
162.38 494.77 m
0 0 l
o
np
182.59 494.77 m
0 0 l
o
0.75 setlinewidth
[] 0 setdash
np
162.38 491.02 m
0 7.50 l
o
np
182.59 491.02 m
0 7.50 l
o
np
162.38 487.27 m
0 15.00 l
20.21 0 l
0 -15.00 l
-20.21 0 l
o
2.25 setlinewidth
[] 0 setdash
0 setlinecap
np
243.22 518.06 m
0 18.37 l
o
0.75 setlinewidth
[ 2.25 3.75] 0 setdash
1 setlinecap
np
179.36 527.25 m
31.93 0 l
o
np
268.28 527.25 m
-12.53 0 l
o
0.75 setlinewidth
[] 0 setdash
np
179.36 522.65 m
0 9.19 l
o
np
268.28 522.65 m
0 9.19 l
o
np
211.29 518.06 m
0 18.37 l
44.46 0 l
0 -18.37 l
-44.46 0 l
o
2.25 setlinewidth
[] 0 setdash
0 setlinecap
np
217.36 552.22 m
0 15.00 l
o
0.75 setlinewidth
[ 2.25 3.75] 0 setdash
1 setlinecap
np
151.07 559.72 m
0 0 l
o
np
283.64 559.72 m
0 0 l
o
0.75 setlinewidth
[] 0 setdash
np
151.07 555.97 m
0 7.50 l
o
np
283.64 555.97 m
0 7.50 l
o
np
151.07 552.22 m
0 15.00 l
132.57 0 l
0 -15.00 l
-132.57 0 l
o
2.25 setlinewidth
[] 0 setdash
0 setlinecap
np
164.81 586.90 m
0 10.60 l
o
0.75 setlinewidth
[ 2.25 3.75] 0 setdash
1 setlinecap
np
164.81 592.20 m
0 0 l
o
np
164.81 592.20 m
0 0 l
o
0.75 setlinewidth
[] 0 setdash
np
164.81 589.55 m
0 5.30 l
o
np
164.81 589.55 m
0 5.30 l
o
np
164.81 586.90 m
0 10.60 l
0 0 l
0 -10.60 l
0 0 l
o
2.25 setlinewidth
[] 0 setdash
0 setlinecap
np
168.04 619.37 m
0 10.61 l
o
0.75 setlinewidth
[ 2.25 3.75] 0 setdash
1 setlinecap
np
168.04 624.68 m
0 0 l
o
np
168.04 624.68 m
0 0 l
o
0.75 setlinewidth
[] 0 setdash
np
168.04 622.02 m
0 5.31 l
o
np
168.04 622.02 m
0 5.31 l
o
np
168.04 619.37 m
0 10.61 l
0 0 l
0 -10.61 l
0 0 l
o
2.25 setlinewidth
[] 0 setdash
0 setlinecap
np
199.97 644.16 m
0 25.98 l
o
0.75 setlinewidth
[ 2.25 3.75] 0 setdash
1 setlinecap
np
155.92 657.15 m
10.51 0 l
o
np
561.73 657.15 m
-91.35 0 l
o
0.75 setlinewidth
[] 0 setdash
np
155.92 650.66 m
0 12.99 l
o
np
561.73 650.66 m
0 12.99 l
o
np
166.43 644.16 m
0 25.98 l
303.95 0 l
0 -25.98 l
-303.95 0 l
o
2.25 setlinewidth
[] 0 setdash
0 setlinecap
np
199.57 682.13 m
0 15.00 l
o
0.75 setlinewidth
[ 2.25 3.75] 0 setdash
1 setlinecap
np
180.17 689.63 m
0 0 l
o
np
218.97 689.63 m
0 0 l
o
0.75 setlinewidth
[] 0 setdash
np
180.17 685.88 m
0 7.50 l
o
np
218.97 685.88 m
0 7.50 l
o
np
180.17 682.13 m
0 15.00 l
38.80 0 l
0 -15.00 l
-38.80 0 l
o
18.00 396.00 594.00 774.00 cl
/Font2 findfont 14 s
0 0 0 srgb
356.40 739.45 (A) .5 0 t
/Font1 findfont 12 s
356.40 400.32 (Months) .5 0 t
18.00 18.00 594.00 774.00 cl
0 0 0 srgb
0.75 setlinewidth
[] 0 setdash
1 setlinecap
1 setlinejoin
10.00 setmiterlimit
np
134.64 494.77 m
0 194.86 l
o
np
134.64 494.77 m
-7.20 0 l
o
np
134.64 527.25 m
-7.20 0 l
o
np
134.64 559.72 m
-7.20 0 l
o
np
134.64 592.20 m
-7.20 0 l
o
np
134.64 624.68 m
-7.20 0 l
o
np
134.64 657.15 m
-7.20 0 l
o
np
134.64 689.63 m
-7.20 0 l
o
/Font1 findfont 12 s
66.23 490.46 (Carbo) 0 ta
-0.480 (,Vcr) tb gr
120.24 522.94 (SOBOPE) 1 0 t
120.24 555.42 (ICE) 1 0 t
120.24 587.89 (TMZ) 1 0 t
120.24 620.37 (HIT) 1 0 t
19.21 652.84 (CTX,CDDP) 0 ta
-2.160 (,VP-16) tb gr
120.24 685.32 (Vimb) 1 0 t
np
145.41 469.44 m
388.03 0 l
o
np
145.41 469.44 m
0 -7.20 l
o
np
242.42 469.44 m
0 -7.20 l
o
np
339.42 469.44 m
0 -7.20 l
o
np
436.43 469.44 m
0 -7.20 l
o
np
533.44 469.44 m
0 -7.20 l
o
145.41 443.52 (0) .5 0 t
242.42 443.52 (12) .5 0 t
339.42 443.52 (24) .5 0 t
436.43 443.52 (36) .5 0 t
533.44 443.52 (48) .5 0 t
134.64 91.44 578.16 336.96 cl
134.64 91.44 578.16 336.96 cl
0 0 0 srgb
2.25 setlinewidth
[] 0 setdash
0 setlinecap
1 setlinejoin
10.00 setmiterlimit
np
251.30 109.18 m
0 28.17 l
o
0.75 setlinewidth
[ 2.25 3.75] 0 setdash
1 setlinecap
np
182.21 123.27 m
34.54 0 l
o
np
561.73 123.27 m
-155.21 0 l
o
0.75 setlinewidth
[] 0 setdash
np
182.21 116.22 m
0 14.09 l
o
np
561.73 116.22 m
0 14.09 l
o
np
216.75 109.18 m
0 28.17 l
189.77 0 l
0 -28.17 l
-189.77 0 l
o
2.25 setlinewidth
[] 0 setdash
0 setlinecap
np
151.07 160.60 m
0 16.27 l
o
0.75 setlinewidth
[ 2.25 3.75] 0 setdash
1 setlinecap
np
151.07 168.73 m
0 0 l
o
np
151.07 168.73 m
0 0 l
o
0.75 setlinewidth
[] 0 setdash
np
151.07 164.67 m
0 8.13 l
o
np
151.07 164.67 m
0 8.13 l
o
np
151.07 160.60 m
0 16.27 l
0 0 l
0 -16.27 l
0 0 l
o
2.25 setlinewidth
[] 0 setdash
0 setlinecap
np
196.80 206.07 m
0 16.26 l
o
0.75 setlinewidth
[ 2.25 3.75] 0 setdash
1 setlinecap
np
196.80 214.20 m
0 0 l
o
np
196.80 214.20 m
0 0 l
o
0.75 setlinewidth
[] 0 setdash
np
196.80 210.13 m
0 8.14 l
o
np
196.80 210.13 m
0 8.14 l
o
np
196.80 206.07 m
0 16.26 l
0 0 l
0 -16.26 l
0 0 l
o
2.25 setlinewidth
[] 0 setdash
0 setlinecap
np
199.72 251.53 m
0 16.27 l
o
0.75 setlinewidth
[ 2.25 3.75] 0 setdash
1 setlinecap
np
199.72 259.67 m
0 0 l
o
np
199.72 259.67 m
0 0 l
o
0.75 setlinewidth
[] 0 setdash
np
199.72 255.60 m
0 8.13 l
o
np
199.72 255.60 m
0 8.13 l
o
np
199.72 251.53 m
0 16.27 l
0 0 l
0 -16.27 l
0 0 l
o
2.25 setlinewidth
[] 0 setdash
0 setlinecap
np
294.12 286.95 m
0 36.37 l
o
0.75 setlinewidth
[ 2.25 3.75] 0 setdash
1 setlinecap
np
174.42 305.13 m
39.90 0 l
o
np
463.45 305.13 m
-63.26 0 l
o
0.75 setlinewidth
[] 0 setdash
np
174.42 296.04 m
0 18.19 l
o
np
463.45 296.04 m
0 18.19 l
o
np
214.32 286.95 m
0 36.37 l
185.87 0 l
0 -36.37 l
-185.87 0 l
o
18.00 18.00 594.00 396.00 cl
/Font2 findfont 14 s
0 0 0 srgb
356.40 361.45 (B) .5 0 t
/Font1 findfont 12 s
356.40 22.32 (Months) .5 0 t
18.00 18.00 594.00 774.00 cl
0 0 0 srgb
0.75 setlinewidth
[] 0 setdash
1 setlinecap
1 setlinejoin
10.00 setmiterlimit
np
134.64 123.27 m
0 181.86 l
o
np
134.64 123.27 m
-7.20 0 l
o
np
134.64 168.73 m
-7.20 0 l
o
np
134.64 214.20 m
-7.20 0 l
o
np
134.64 259.67 m
-7.20 0 l
o
np
134.64 305.13 m
-7.20 0 l
o
/Font1 findfont 12 s
66.23 118.96 (Carbo) 0 ta
-0.480 (,Vcr) tb gr
120.24 164.43 (ICE) 1 0 t
120.24 209.89 (TMZ) 1 0 t
120.24 255.36 (HIT) 1 0 t
19.21 300.83 (CTX,CDDP) 0 ta
-2.160 (,VP-16) tb gr
np
134.64 91.44 m
429.04 0 l
o
np
213.35 91.44 m
0 -7.20 l
o
np
330.13 91.44 m
0 -7.20 l
o
np
446.90 91.44 m
0 -7.20 l
o
np
563.68 91.44 m
0 -7.20 l
o
213.35 65.52 (12) .5 0 t
330.13 65.52 (24) .5 0 t
446.90 65.52 (36) .5 0 t
563.68 65.52 (48) .5 0 t
ep
%%Trailer
%%Pages: 1
%%EOF
